"Output","Frequency","CTM","SPF"
"",0.6736877136988524,0.569848106304885,1
"0",0.2910055591416023,1.780881381377805,4
"1",0.015353533559258632,6.025285465009982,11
"00",0.005944449335167834,7.394241112742966,17
"01",0.000932836551937262,10.066088059851662,19
"10",0.0003704178747261376,11.398558661198212,21
"11",0.00021603355599331158,12.176456959266453,21
"000",0.0002238703234416784,12.125049084325228,23
"001",0.00018076810247566095,12.433572250801003,23
"010",0.00017684971875147755,12.46518845486273,25
"011",0.0001755435908434164,12.475883055658967,25
"100",0.0001742374629353553,12.486657527253142,25
"101",0.00017293133502729416,12.49751307163051,25
"110",0.00017162520711923302,12.508450918115399,27
"111",0.00017031907921117188,12.51947232420665,27
"0000",0.00017058030479278412,12.517261296891297,27
"0001",0.00016770682339504962,12.541770991315424,27
"0010",0.00016640069548698848,12.553050916181427,27
"0011",0.00016509456757892734,12.564419730260624,29
"0100",0.00016378843967086623,12.575878845635689,29
"0101",0.0001624823117628051,12.587429708307125,29
"0110",0.00016117618385474395,12.599073799288309,29
"0111",0.0001598700559466828,12.610812635745075,29
"1000",0.0001585639280386217,12.622647772182045,29
"1001",0.00015725780013056055,12.634580801678025,29
"1010",0.0001559516722224994,12.646613357172923,29
"1011",0.00015464554431443827,12.658747112808777,31
"1100",0.00015333941640637716,12.670983785327675,31
"1101",0.00015203328849831602,12.683325135529444,31
"1110",0.00015072716059025488,12.695772969792245,31
"1111",0.00014942103268219373,12.708329141659338,31
"00000",0.0001481149047741326,12.720995553495499,31
"00001",0.00014680877686607148,12.733774158216802,31
"00010",0.00014550264895801034,12.746666961097695,31
"00011",0.0001441965210499492,12.759676021659558,31
"00100",0.00014289039314188806,12.772803455645171,31
"00101",0.00014158426523382694,12.786051437083856,33
"00110",0.0001402781373257658,12.799422200452314,33
"00111",0.00013897200941770466,12.812918042936538,33
"01000",0.00013766588150964352,12.826541326800513,33
"01001",0.0001363597536015824,12.840294481867844,33
"01010",0.00013505362569352127,12.854180008122793,33
"01011",0.00013374749778546013,12.868200478437728,33
"01100",0.000132441369877399,12.882358541434387,33
"01101",0.00013113524196933787,12.896656924486955,33
"01110",0.00012982911406127673,12.911098436875442,33
"01111",0.0001285229861532156,12.925685973098489,33
"10000",0.00012721685824515445,12.940422516355385,33
"10001",0.00012591073033709334,12.955311142207766,33
"10010",0.0001246046024290322,12.970355022432216,33
"10011",0.00012329847452097106,12.985557429075886,33
"10100",0.00012199234661290993,13.000921738728065,35
"10101",0.00012068621870484879,13.01645143702167,35
"10110",0.00011938009079678766,13.032150123379658,35
"10111",0.00011807396288872652,13.04802151602254,35
"11000",0.0001167678349806654,13.06406945725441,35
"11001",0.00011546170707260425,13.080297919046297,35
"11010",0.00011415557916454311,13.09671100893713,35
"11011",0.00011284945125648199,13.113312976274258,35
"11100",0.00011154332334842085,13.130108218817238,35
"11101",0.00011023719544035972,13.147101289730543,35
"11110",0.00010919229311391081,13.160841346356845,35
"11111",0.00010788616520584968,13.178202507018282,35
"000000",0.00010658003729778854,13.195775136466231,35
"000001",0.00010527390938972741,13.21356444990976,35
"000010",0.00010396778148166627,13.231575857894079,35
"000011",0.00010266165357360515,13.24981497617912,35
"000100",0.000101355525665544,13.2682876362506,35
"000101",0.00010004939775748287,13.286999896512771,35
"000110",9.874326984942174e-05,13.305958054216655,35
"000111",9.74371419413606e-05,13.32516865818249,35
"001000",9.613101403329947e-05,13.344638522380714,35
"001001",9.482488612523833e-05,13.364374740441978,35
"001010",9.35187582171772e-05,13.384384701173472,37
"001011",9.221263030911606e-05,13.404676105166548,37
"001100",9.090650240105494e-05,13.425256982589,37
"001101",8.96003744929938e-05,13.446135712264915,37
"001110",8.829424658493267e-05,13.467321042155543,37
"001111",8.698811867687153e-05,13.488822111366465,37
"010000",8.56819907688104e-05,13.510648473819645,37
"010001",8.437586286074926e-05,13.532810123743802,37
"010010",8.306973495268813e-05,13.555317523153372,37
"010011",8.176360704462699e-05,13.578181631505108,37
"010100",8.045747913656586e-05,13.601413937742826,37
"010101",7.915135122850472e-05,13.625026494964777,37
"010110",7.78452233204436e-05,13.649031957975566,37
"010111",7.653909541238246e-05,13.67344362401548,37
"011000",7.523296750432133e-05,13.698275476995414,37
"011001",7.392683959626019e-05,13.723542235605846,37
"011010",7.262071168819906e-05,13.74925940571422,37
"011011",7.131458378013792e-05,13.775443337517876,37
"011100",7.00084558720768e-05,13.802111287979955,37
"011101",6.870232796401565e-05,13.829281489145425,37
"011110",6.739620005595453e-05,13.856973223014473,37
"011111",6.609007214789339e-05,13.885206903743418,37
"100000",6.478394423983226e-05,13.914004168050852,37
"100001",6.347781633177112e-05,13.943387974831946,37
"100010",6.217168842370998e-05,13.973382715129784,37
"100011",6.086556051564885e-05,14.004014333783447,37
"100100",5.9559432607587716e-05,14.035310464272985,37
"100101",5.825330469952658e-05,14.067300578517424,37
"100110",5.694717679146545e-05,14.100016153660802,37
"100111",5.5641048883404314e-05,14.13349085821189,37
"101000",5.433492097534318e-05,14.167760760296636,39
"101001",5.302879306728205e-05,14.202864561252552,39
"101010",5.172266515922091e-05,14.238843858358118,39
"101011",5.041653725115978e-05,14.275743441169647,39
"101100",4.9110409343098645e-05,14.31361162676009,39
"101101",4.780428143503751e-05,14.352500640153686,39
"101110",4.649815352697637e-05,14.39246704747133,39
"101111",4.519202561891524e-05,14.433572250801003,39
"110000",4.38858977108541e-05,14.475883055658967,39
"110001",4.257976980279297e-05,14.51947232420665,39
"110010",4.1273641894731835e-05,14.564419730260624,39
"110011",3.99675139866707e-05,14.610812635745075,39
"110100",3.866138607860957e-05,14.658747112808777,39
"110101",3.7355258170548434e-05,14.708329141659338,39
"110110",3.60491302624873e-05,14.759676021659558,39
"110111",3.4743002354426166e-05,14.812918042936538,39
"111000",3.343687444636503e-05,14.868200478437728,39
"111001",3.21307465383039e-05,14.925685973098489,39
"111010",3.0824618630242764e-05,14.985557429075886,39
"111011",2.951849072218163e-05,15.04802151602254,39
"111100",2.8212362814120497e-05,15.113312976274258,39
"111101",2.6906234906059363e-05,15.18169995125451,39
"111110",2.560010699799823e-05,15.25349063432252,39
"111111",2.4293979089937095e-05,15.329041667329696,39
"0000000",2.298785118187596e-05,15.40876885980043,39
"0000001",2.1681723273814827e-05,15.493161047090803,39
"0000010",2.0375595365753694e-05,15.58279825957548,39
"0000011",1.9069467457692556e-05,15.67837591955771,39
"0000100",1.7763339549631422e-05,15.780737637187388,39
"0000101",1.645721164157029e-05,15.89092055493781,39
"0000110",1.5151083733509155e-05,16.010219483310156,39
"0000111",1.3844955825448021e-05,16.140280023874528,39
"0001000",1.2538827917386887e-05,16.28323797771657,39
"0001001",1.1232700009325753e-05,16.44193572373563,39
"0001010",9.92657210126462e-06,16.620272964994143,39
"0001011",8.620444193203485e-06,16.823806359079274,39
"0001100",7.314316285142351e-06,17.060845556380123,39
"0001101",6.008188377081217e-06,17.344638522380716,39
"0001110",4.702060469020083e-06,17.698275476995416,39
"0001111",3.3959325609589488e-06,18.167760760296634,39
"0010000",2.0898046528978145e-06,18.86820047843773,39
"0010001",7.836767448366804e-07,20.28323797771657,39